4 Tidyverse – Minicurso: Ciência de Dados com R -- Uma Introdução Prática
…
body_mass_g: um número inteiro que representa a massa do animal (em gramas).

sex: um fator que representa o sexo do animal (feminino ou masculino).

year: um número inteiro que denota o ano de estudo (2007, 2008 ou 2009).

Adicionalmente, também é informado que os dados foram originalmente publicados no estudo de Gorman et al. (2014) e que essa pesquisa fez parte do programa Palmer Station Long-Term Ecological Research (LTER). Isso significa que o conjunto de dados que está sendo utilizado possui uma origem científica real, ligada a questões sobre como o ambiente e as diferenças entre sexos afetam a vida dessas aves.

A segunda função que será vista é o select(). Frequentemente, um conjunto de dados contém mais informações do que o necessário para uma análise específica. Com isso em mente, a função select() permite-nos selecionar colunas de interesse. Em geral, os argumentos são os nomes das colunas.

penguins %>% 
  select(species, island, sex)

# A tibble: 344 × 3
   species island    sex   
   <fct>   <fct>     <fct> 
 1 Adelie  Torgersen male  
 2 Adelie  Torgersen female
 3 Adelie  Torgersen female
 4 Adelie  Torgersen <NA>  
 5 Adelie  Torgersen female
 6 Adelie  Torgersen male  
 7 Adelie  Torgersen female
 8 Adelie  Torgersen male  
 9 Adelie  Torgersen <NA>  
10 Adelie  Torgersen <NA>  
# ℹ 334 more rows

O dplyr também oferece “seletores auxiliares” que tornam a seleção mais poderosa e flexível. Por exemplo, caso desejarmos selecionar todas as medidas biométricas contidas no dataset que terminam com _mm, é possível usar a função-argumento ends_with() dentro de select():

penguins %>% 
  select(
    body_mass_g, ends_with("_mm")
  )

# A tibble: 344 × 4
   body_mass_g bill_length_mm bill_depth_mm flipper_length_mm
         <int>          <dbl>         <dbl>             <int>
 1        3750           39.1          18.7               181
 2        3800           39.5          17.4               186
 3        3250           40.3          18                 195
 4          NA           NA            NA                  NA
 5        3450           36.7          19.3               193
 6        3650           39.3          20.6               190
 7        3625           38.9          17.8               181
 8        4675           39.2          19.6               195
 9        3475           34.1          18.1               193
10        4250           42            20.2               190
# ℹ 334 more rows

Outros seletores úteis incluem starts_with() e contains(). Para remover colunas, utiliza-se o sinal de menos (-). Por exemplo, deseja-se remover as colunas ano e island:

penguins %>% 
  select(-year, -island)

# A tibble: 344 × 6
   species bill_length_mm bill_depth_mm flipper_length_mm body_mass_g sex   
   <fct>            <dbl>         <dbl>             <int>       <int> <fct> 
 1 Adelie            39.1          18.7               181        3750 male  
 2 Adelie            39.5          17.4               186        3800 female
 3 Adelie            40.3          18                 195        3250 female
 4 Adelie            NA            NA                  NA          NA <NA>  
 5 Adelie            36.7          19.3               193        3450 female
 6 Adelie            39.3          20.6               190        3650 male  
 7 Adelie            38.9          17.8               181        3625 female
 8 Adelie            39.2          19.6               195        4675 male  
 9 Adelie            34.1          18.1               193        3475 <NA>  
10 Adelie            42            20.2               190        4250 <NA>  
# ℹ 334 more rows

Antes prosseguirmos para a próxima função, vale destacar que o conjunto de dados penguins é um objeto tibble dentro do R e, portanto, por mais que existam 344 observações, o tibble enxuga a visualização para somente 10, além de indicar quantas linhas ainda existem.

A terceira função é o filter(). Enquanto select() trabalha nas colunas, o filter() trabalha nas linhas, permitindo-nos manter apenas as observações que satisfazem certas condições. É aqui que é possível responder perguntas investigadas com relação aos dados. Por exemplo, para encontrar todos os pinguins da espécie Adelie que vivem na ilha Torgersen:

penguins %>% 
  filter(
      species == "Adelie", island == "Torgersen"
    )

# A tibble: 52 × 8
   species island    bill_length_mm bill_depth_mm flipper_length_mm body_mass_g
   <fct>   <fct>              <dbl>         <dbl>             <int>       <int>
 1 Adelie  Torgersen           39.1          18.7               181        3750
 2 Adelie  Torgersen           39.5          17.4               186        3800
 3 Adelie  Torgersen           40.3          18                 195        3250
 4 Adelie  Torgersen           NA            NA                  NA          NA
 5 Adelie  Torgersen           36.7          19.3               193        3450
 6 Adelie  Torgersen           39.3          20.6               190        3650
 7 Adelie  Torgersen           38.9          17.8               181        3625
 8 Adelie  Torgersen           39.2          19.6               195        4675
 9 Adelie  Torgersen           34.1          18.1               193        3475
10 Adelie  Torgersen           42            20.2               190        4250
# ℹ 42 more rows
# ℹ 2 more variables: sex <fct>, year <int>
…
A interpretação do NA é relativa ao contexto dos dados. No caso das observações sobre os pinguins, os valores ausentes na variável sex permite identificar pinguins que não tiveram o sexo avaliado, tornando um provável erro frustrante de coleta de dados para um objeto de investigação. O pacote tidyr, também do tidyverse, oferece a função drop_na(), que remove quaisquer linhas que contenham NAs, permitindo a criação de um dataset auxiliar:

penguins_completo <- penguins %>% 
  drop_na()

A quarta função que será apresentada é arrange(), que permite reordenar as linhas do dataframe com base nos valores de uma ou mais colunas. Isso é útil para encontrar extremos ou simplesmente para organizar a saída de uma forma mais lógica. Para encontrar os pinguins mais leves, ordenamos pela massa corporal em ordem crescente (o padrão):

penguins %>% 
  arrange(body_mass_g)

# A tibble: 344 × 8
   species   island   bill_length_mm bill_depth_mm flipper_length_mm body_mass_g
   <fct>     <fct>             <dbl>         <dbl>             <int>       <int>
 1 Chinstrap Dream              46.9          16.6               192        2700
 2 Adelie    Biscoe             36.5          16.6               181        2850
 3 Adelie    Biscoe             36.4          17.1               184        2850
 4 Adelie    Biscoe             34.5          18.1               187        2900
 5 Adelie    Dream              33.1          16.1               178        2900
 6 Adelie    Torgers…           38.6          17                 188        2900
 7 Chinstrap Dream              43.2          16.6               187        2900
 8 Adelie    Biscoe             37.9          18.6               193        2925
 9 Adelie    Dream              37.5          18.9               179        2975
10 Adelie    Dream              37            16.9               185        3000
# ℹ 334 more rows
# ℹ 2 more variables: sex <fct>, year <int>

Para ordenar os valores em ordem decrescente (do maior para o menor), utilizamos a função auxiliar desc(), desta maneira, encontramos os pinguins mais pesados:

penguins %>% 
  arrange(desc(body_mass_g))

# A tibble: 344 × 8
   species island bill_length_mm bill_depth_mm flipper_length_mm body_mass_g
   <fct>   <fct>           <dbl>         <dbl>             <int>       <int>
 1 Gentoo  Biscoe           49.2          15.2               221        6300
 2 Gentoo  Biscoe           59.6          17                 230        6050
 3 Gentoo  Biscoe           51.1          16.3               220        6000
 4 Gentoo  Biscoe           48.8          16.2               222        6000
 5 Gentoo  Biscoe           45.2          16.4               223        5950
 6 Gentoo  Biscoe           49.8          15.9               229        5950
 7 Gentoo  Biscoe           48.4          14.6               213        5850
 8 Gentoo  Biscoe           49.3          15.7               217        5850
 9 Gentoo  Biscoe           55.1          16                 230        5850
10 Gentoo  Biscoe           49.5          16.2               229        5800
# ℹ 334 more rows
# ℹ 2 more variables: sex <fct>, year <int>

Também é possível ordenar múltiplas colunas. Por exemplo, para encontrar o pinguim mais pesado dentro de cada espécie:

penguins %>% 
  arrange(
    species, # Primeiro por espécie
    desc(body_mass_g) # Depois por massa decrescente
  )

# A tibble: 344 × 8
   species island    bill_length_mm bill_depth_mm flipper_length_mm body_mass_g
   <fct>   <fct>              <dbl>         <dbl>             <int>       <int>
 1 Adelie  Biscoe              43.2          19                 197        4775
 2 Adelie  Biscoe              41            20                 203        4725
 3 Adelie  Torgersen           42.9          17.6               196        4700
 4 Adelie  Torgersen           39.2          19.6               195        4675
 5 Adelie  Dream               39.8          19.1               184        4650
 6 Adelie  Dream               39.6          18.8               190        4600
 7 Adelie  Biscoe              45.6          20.3               191        4600
 8 Adelie  Torgersen           42.5          20.7               197        4500
 9 Adelie  Dream               37.5          18.5               199        4475
10 Adelie  Torgersen           41.8          19.4               198        4450
# ℹ 334 more rows
# ℹ 2 more variables: sex <fct>, year <int>

A quinta função e, com certeza, uma das mais funcionais é a mutate(). Ela permite criar novas colunas (variáveis) que são funções de colunas já existentes, sem modificar as originais. Por exemplo, suponha que desejamos mostrar somente as espécies e massas de pinguins em quilogramas (kg):

penguins %>% 
  mutate(body_mass_kg = body_mass_g/1000) %>% 
  select(species, body_mass_kg)

# A tibble: 344 × 2
   species body_mass_kg
   <fct>          <dbl>
 1 Adelie          3.75
 2 Adelie          3.8 
 3 Adelie          3.25
 4 Adelie         NA   
 5 Adelie          3.45
 6 Adelie          3.65
 7 Adelie          3.62
 8 Adelie          4.68
 9 Adelie          3.48
10 Adelie          4.25
# ℹ 334 more rows
Podemos usar mutate() para criar categorias. A função case_when() é extremamente útil para criar classificações baseadas em condições lógicas., Suponha que desejamos criar uma categoria de tamanho baseada na massa corporal:

penguins %>% 
  mutate(
    size_category = case_when(
      body_mass_g > 4750 ~ "Grande",
      body_mass_g < 3500 ~ "Pequeno",
      TRUE ~ "Médio"
    )
  ) %>% 
  select(
    species, body_mass_g, size_category
  )

# A tibble: 344 × 3
   species body_mass_g size_category
   <fct>         <int> <chr>        
 1 Adelie         3750 Médio        
 2 Adelie         3800 Médio        
 3 Adelie         3250 Pequeno      
 4 Adelie           NA Médio        
 5 Adelie         3450 Pequeno      
 6 Adelie         3650 Médio        
 7 Adelie         3625 Médio        
 8 Adelie         4675 Médio        
 9 Adelie         3475 Pequeno      
10 Adelie         4250 Médio        
# ℹ 334 more rows
…
